criticalpath - R Package Implementation of Critical Path Method
…
#>  7     7 a7           3 FALSE     FALSE              3            6          5
#>  8     8 a8           2 FALSE     FALSE              3            5          6
#>  9     9 a9           1 FALSE     FALSE              3            4          7
#> 10    10 a10          1 FALSE     FALSE              3            4          7
#> 11    11 a11          2 FALSE     TRUE               7            9          7
#> 12    12 a12          1 FALSE     FALSE              6            7          8
#> 13    13 a13          1 FALSE     FALSE              5            6          8
#> 14    14 a14          1 FALSE     FALSE              4            5          8
#> 15    15 a15          1 FALSE     FALSE              4            5          8
#> 16    16 a16          2 FALSE     TRUE               9           11          9
#> 17    17 a17          1 FALSE     FALSE              9           10         10
#> # ... with 6 more variables: late_finish <int>, total_float <int>,
#> #   free_float <int>, progr_level <int>, regr_level <int>, topo_float <int>
sch_relations(sch)
#> # A tibble: 26 x 8
#>     from    to type    lag critical   ord i_from  i_to
#>    <int> <int> <chr> <int> <lgl>    <int>  <int> <int>
#>  1     1     2 FS        0 TRUE         1      1     2
#>  2     1     3 FS        0 FALSE        2      1     3
#>  3     2     4 FS        0 TRUE         3      2     4
#>  4     2     5 FS        0 FALSE        4      2     5
#>  5     2     6 FS        0 FALSE        5      2     6
#>  6     3     7 FS        0 FALSE        6      3     7
#>  7     3     8 FS        0 FALSE        7      3     8
#>  8     3     9 FS        0 FALSE        8      3     9
#>  9     3    10 FS        0 FALSE        9      3    10
#> 10     4    11 FS        0 TRUE        10      4    11
#> # ... with 16 more rows
…
